; generated by Slic3r 1.2.7-dev on 2015-02-19 at 17:02:32

; external perimeters extrusion width = 0.50mm
; perimeters extrusion width = 0.69mm
; infill extrusion width = 0.69mm
; solid infill extrusion width = 0.69mm
; top infill extrusion width = 0.69mm

M104 S195 ; set temperature

M92 X118.52 ; calibrate X
M92 Y118.52 ; calibrate Y
M92 Z4031.50 ; calibrate Z
M92 E1850 ; calibrate E
M220 S100
M221 S100
M201 X1500 Y1500
G28
G92 E0
G1 E5.0 F100
G92 E0
M109 S195 ; wait for temperature to be reached
G21 ; set units to millimeters
G90 ; use absolute coordinates
M82 ; use absolute distances for extrusion
G92 E0
M106 S255
G1 E-2.00000 F2400.00000
G92 E0
G1 Z0.318 F6000.000
G1 X85.962 Y86.168 F6000.000
G1 E2.00000 F2400.00000
G1 X87.670 Y84.944 E2.05646 F900.000
G1 X90.000 Y84.433 E2.12057
G1 X110.000 Y84.433 E2.65809
G1 X112.063 Y84.830 E2.71455
G1 X113.832 Y85.962 E2.77102 F900.000
G1 X115.056 Y87.670 E2.82748
G1 X115.567 Y90.000 E2.89159
G1 X115.567 Y110.000 E3.42911
G1 X115.170 Y112.063 E3.48557
G1 X114.038 Y113.832 E3.54203
G1 X112.330 Y115.056 E3.59850
G1 X110.000 Y115.567 E3.66260
G1 X90.000 Y115.567 E4.20012
G1 X87.937 Y115.170 E4.25659
G1 X86.168 Y114.038 E4.31305
G1 X84.944 Y112.330 E4.36951
G1 X84.433 Y110.000 E4.43362
G1 X84.433 Y90.000 E4.97114
G1 X84.830 Y87.937 E5.02760
G1 X85.922 Y86.231 E5.08205
G1 E3.08205 F2400.00000
G92 E0
G1 X109.116 Y109.116 F6000.000
G1 E2.00000 F2400.00000
G1 X90.884 Y109.116 E2.48999 F900.000
G1 X90.884 Y90.884 E2.97997
G1 X109.116 Y90.884 E3.46996
G1 X109.116 Y109.041 E3.95793
G1 X109.683 Y109.683 F6000.000
G1 X90.317 Y109.683 E4.47839 F900.000
G1 X90.317 Y90.317 E4.99884
G1 X109.683 Y90.317 E5.51930
G1 X109.683 Y109.608 E6.03774
G1 X109.249 Y109.433 F6000.000
G1 X108.784 Y91.496 F6000.000
G1 X108.504 Y91.216 E6.04843 F900.000
G1 X107.700 Y91.216 E6.07011
G1 X108.784 Y92.300 E6.11146
G1 X108.784 Y93.104 E6.13314
G1 X106.896 Y91.216 E6.20514
G1 X106.091 Y91.216 E6.22682
G1 X108.784 Y93.909 E6.32948
G1 X108.784 Y94.713 E6.35115
G1 X105.287 Y91.216 E6.48447
G1 X104.483 Y91.216 E6.50615
G1 X108.784 Y95.517 E6.67012
G1 X108.784 Y96.321 E6.69179
G1 X103.679 Y91.216 E6.88642
G1 X102.875 Y91.216 E6.90810
G1 X108.784 Y97.125 E7.13338
G1 X108.784 Y97.929 E7.15505
G1 X102.071 Y91.216 E7.41099
G1 X101.267 Y91.216 E7.43267
G1 X108.784 Y98.733 E7.71926
G1 X108.784 Y99.537 E7.74094
G1 X100.463 Y91.216 E8.05818
G1 X99.659 Y91.216 E8.07986
G1 X108.784 Y100.341 E8.42776
G1 X108.784 Y101.145 E8.44944
G1 X98.855 Y91.216 E8.82800
G1 X98.051 Y91.216 E8.84967
G1 X108.784 Y101.949 E9.25889
G1 X108.784 Y102.754 E9.28056
G1 X97.246 Y91.216 E9.72043
G1 X96.442 Y91.216 E9.74211
G1 X108.784 Y103.558 E10.21263
G1 X108.784 Y104.362 E10.23431
G1 X95.638 Y91.216 E10.73549
G1 X94.834 Y91.216 E10.75717
G1 X108.784 Y105.166 E11.28900
G1 X108.784 Y105.970 E11.31068
G1 X94.030 Y91.216 E11.87317
G1 X93.226 Y91.216 E11.89485
G1 X108.784 Y106.774 E12.48799
G1 X108.784 Y107.578 E12.50967
G1 X92.422 Y91.216 E13.13347
G1 X91.618 Y91.216 E13.15515
G1 X108.784 Y108.382 E13.80960
G1 X108.382 Y108.784 E13.82493
G1 X91.216 Y91.618 E14.47938
G1 X91.216 Y92.422 E14.50106
G1 X107.578 Y108.784 E15.12486
G1 X106.774 Y108.784 E15.14654
G1 X91.216 Y93.226 E15.73968
G1 X91.216 Y94.030 E15.76136
G1 X105.970 Y108.784 E16.32385
G1 X105.166 Y108.784 E16.34552
G1 X91.216 Y94.834 E16.87736
G1 X91.216 Y95.638 E16.89903
G1 X104.362 Y108.784 E17.40021
G1 X103.558 Y108.784 E17.42189
G1 X91.216 Y96.442 E17.89241
G1 X91.216 Y97.246 E17.91408
G1 X102.754 Y108.784 E18.35395
G1 X101.949 Y108.784 E18.37563
G1 X91.216 Y98.051 E18.78484
G1 X91.216 Y98.855 E18.80652
G1 X101.145 Y108.784 E19.18507
G1 X100.341 Y108.784 E19.20675
G1 X91.216 Y99.659 E19.55465
G1 X91.216 Y100.463 E19.57633
G1 X99.537 Y108.784 E19.89357
G1 X98.733 Y108.784 E19.91525
G1 X91.216 Y101.267 E20.20184
G1 X91.216 Y102.071 E20.22352
G1 X97.929 Y108.784 E20.47945
G1 X97.125 Y108.784 E20.50113
G1 X91.216 Y102.875 E20.72641
G1 X91.216 Y103.679 E20.74808
G1 X96.321 Y108.784 E20.94271
G1 X95.517 Y108.784 E20.96438
G1 X91.216 Y104.483 E21.12835
G1 X91.216 Y105.287 E21.15003
G1 X94.713 Y108.784 E21.28334
G1 X93.908 Y108.784 E21.30502
G1 X91.216 Y106.092 E21.40768
G1 X91.216 Y106.896 E21.42935
G1 X93.104 Y108.784 E21.50135
G1 X92.300 Y108.784 E21.52303
G1 X91.216 Y107.700 E21.56438
G1 X91.216 Y108.504 E21.58606
G1 X91.496 Y108.784 E21.59675
G1 E19.59675 F2400.00000
G92 E0
G1 Z0.635 F6000.000
G1 X109.225 Y109.225 F6000.000
G1 E2.00000 F2400.00000
G1 X90.775 Y109.225 E2.54096 F2461.148
G1 X90.775 Y90.775 E3.08192
G1 X109.225 Y90.775 E3.62288
G1 X109.225 Y109.150 E4.16163
G1 X109.750 Y109.750 F6000.000
G1 X90.250 Y109.750 E4.73339 F1230.574
G1 X90.250 Y90.250 E5.30514
G1 X109.750 Y90.250 E5.87690
G1 X109.750 Y109.675 E6.44645
G1 X109.317 Y109.500 F6000.000
G1 X108.558 Y108.861 F6000.000
G1 X108.861 Y108.558 E6.45926 F2215.033
G1 X108.861 Y107.665 E6.48601
G1 X107.665 Y108.861 E6.53665
G1 X106.772 Y108.861 E6.56340
G1 X108.861 Y106.772 E6.65187
G1 X108.861 Y105.878 E6.67862
G1 X105.878 Y108.861 E6.80492
G1 X104.985 Y108.861 E6.83167
G1 X108.861 Y104.985 E6.99581
G1 X108.861 Y104.092 E7.02256
G1 X104.092 Y108.861 E7.22453
G1 X103.199 Y108.861 E7.25128
G1 X108.861 Y103.199 E7.49108
G1 X108.861 Y102.305 E7.51783
G1 X102.305 Y108.861 E7.79546
G1 X101.412 Y108.861 E7.82221
G1 X108.861 Y101.412 E8.13767
G1 X108.861 Y100.519 E8.16442
G1 X100.519 Y108.861 E8.51772
G1 X99.625 Y108.861 E8.54447
G1 X108.861 Y99.625 E8.93560
G1 X108.861 Y98.732 E8.96235
G1 X98.732 Y108.861 E9.39131
G1 X97.839 Y108.861 E9.41806
G1 X108.861 Y97.839 E9.88485
G1 X108.861 Y96.946 E9.91160
G1 X96.946 Y108.861 E10.41622
G1 X96.052 Y108.861 E10.44298
G1 X108.861 Y96.052 E10.98543
G1 X108.861 Y95.159 E11.01218
G1 X95.159 Y108.861 E11.59247
G1 X94.266 Y108.861 E11.61922
G1 X108.861 Y94.266 E12.23734
G1 X108.861 Y93.373 E12.26409
G1 X93.373 Y108.861 E12.92004
G1 X92.479 Y108.861 E12.94679
G1 X108.861 Y92.479 E13.64058
G1 X108.861 Y91.586 E13.66733
G1 X91.586 Y108.861 E14.39895
G1 X91.139 Y108.414 E14.41786
G1 X108.414 Y91.139 E15.14948
G1 X107.521 Y91.139 E15.17623
G1 X91.139 Y107.521 E15.87001
G1 X91.139 Y106.627 E15.89676
G1 X106.627 Y91.139 E16.55271
G1 X105.734 Y91.139 E16.57946
G1 X91.139 Y105.734 E17.19758
G1 X91.139 Y104.841 E17.22433
G1 X104.841 Y91.139 E17.80462
G1 X103.948 Y91.139 E17.83137
G1 X91.139 Y103.948 E18.37382
G1 X91.139 Y103.054 E18.40057
G1 X103.054 Y91.139 E18.90519
G1 X102.161 Y91.139 E18.93194
G1 X91.139 Y102.161 E19.39873
G1 X91.139 Y101.268 E19.42549
G1 X101.268 Y91.139 E19.85444
G1 X100.374 Y91.139 E19.88119
G1 X91.139 Y100.374 E20.27232
G1 X91.139 Y99.481 E20.29907
G1 X99.481 Y91.139 E20.65236
G1 X98.588 Y91.139 E20.67912
G1 X91.139 Y98.588 E20.99458
G1 X91.139 Y97.695 E21.02133
G1 X97.695 Y91.139 E21.29896
G1 X96.801 Y91.139 E21.32571
G1 X91.139 Y96.801 E21.56551
G1 X91.139 Y95.908 E21.59226
G1 X95.908 Y91.139 E21.79422
G1 X95.015 Y91.139 E21.82097
G1 X91.139 Y95.015 E21.98511
G1 X91.139 Y94.122 E22.01186
G1 X94.122 Y91.139 E22.13816
G1 X93.228 Y91.139 E22.16491
G1 X91.139 Y93.228 E22.25338
G1 X91.139 Y92.335 E22.28013
G1 X92.335 Y91.139 E22.33076
G1 X91.442 Y91.139 E22.35752
G1 X91.139 Y91.442 E22.37032
G1 E20.37032 F2400.00000
G92 E0
G1 Z0.953 F6000.000
G1 X109.225 Y109.225 F6000.000
G1 E2.00000 F2400.00000
G1 X90.775 Y109.225 E2.54096 F1081.364
G1 X90.775 Y90.775 E3.08192
G1 X109.225 Y90.775 E3.62288
G1 X109.225 Y109.150 E4.16163
G1 X109.750 Y109.750 F6000.000
G1 X90.250 Y109.750 E4.73339 F600.000
G1 X90.250 Y90.250 E5.30514
G1 X109.750 Y90.250 E5.87690
G1 X109.750 Y109.675 E6.44645
G1 X109.317 Y109.500 F6000.000
G1 X108.861 Y93.695 F6000.000
G1 X106.305 Y91.139 E6.55242 F1081.364
G1 X101.932 Y91.139 E6.68064
G1 X108.861 Y98.068 E6.96794
G1 X108.861 Y102.441 E7.09616
G1 X97.559 Y91.139 E7.56479
G1 X93.186 Y91.139 E7.69300
G1 X108.861 Y106.814 E8.34296
G1 X106.534 Y108.861 E8.43380
G1 X91.139 Y93.466 E9.07217
G1 X91.139 Y97.838 E9.20039
G1 X102.162 Y108.861 E9.65743
G1 X97.789 Y108.861 E9.78565
G1 X91.139 Y102.211 E10.06136
G1 X91.139 Y106.584 E10.18958
G1 X93.416 Y108.861 E10.28397
G1 E8.28397 F2400.00000
G92 E0
G1 Z1.270 F6000.000
G1 X109.225 Y109.225 F6000.000
G1 E2.00000 F2400.00000
G1 X90.775 Y109.225 E2.54096 F1081.364
G1 X90.775 Y90.775 E3.08192
G1 X109.225 Y90.775 E3.62288
G1 X109.225 Y109.150 E4.16163
G1 X109.750 Y109.750 F6000.000
G1 X90.250 Y109.750 E4.73339 F600.000
G1 X90.250 Y90.250 E5.30514
G1 X109.750 Y90.250 E5.87690
G1 X109.750 Y109.675 E6.44645
G1 X109.317 Y109.500 F6000.000
G1 X106.305 Y108.861 F6000.000
G1 X108.861 Y106.305 E6.55242 F1081.364
G1 X108.861 Y101.932 E6.68064
G1 X101.932 Y108.861 E6.96794
G1 X97.559 Y108.861 E7.09616
G1 X108.861 Y97.559 E7.56479
G1 X108.861 Y93.186 E7.69300
G1 X93.186 Y108.861 E8.34295
G1 X91.139 Y106.534 E8.43380
G1 X106.534 Y91.139 E9.07217
G1 X102.162 Y91.139 E9.20039
G1 X91.139 Y102.162 E9.65743
G1 X91.139 Y97.789 E9.78565
G1 X97.789 Y91.139 E10.06136
G1 X93.416 Y91.139 E10.18958
G1 X91.139 Y93.416 E10.28397
G1 E8.28397 F2400.00000
G92 E0
G1 Z1.587 F6000.000
G1 X109.225 Y109.225 F6000.000
G1 E2.00000 F2400.00000
G1 X90.775 Y109.225 E2.54096 F1081.364
G1 X90.775 Y90.775 E3.08192
G1 X109.225 Y90.775 E3.62288
G1 X109.225 Y109.150 E4.16163
G1 X109.750 Y109.750 F6000.000
G1 X90.250 Y109.750 E4.73339 F600.000
G1 X90.250 Y90.250 E5.30514
G1 X109.750 Y90.250 E5.87690
G1 X109.750 Y109.675 E6.44645
G1 X109.317 Y109.500 F6000.000
G1 X108.861 Y93.695 F6000.000
G1 X106.305 Y91.139 E6.55242 F1081.364
G1 X101.932 Y91.139 E6.68064
G1 X108.861 Y98.068 E6.96794
G1 X108.861 Y102.441 E7.09616
G1 X97.559 Y91.139 E7.56479
G1 X93.186 Y91.139 E7.69300
G1 X108.861 Y106.814 E8.34296
G1 X106.534 Y108.861 E8.43380
G1 X91.139 Y93.466 E9.07217
G1 X91.139 Y97.838 E9.20039
G1 X102.162 Y108.861 E9.65743
G1 X97.789 Y108.861 E9.78565
G1 X91.139 Y102.211 E10.06136
G1 X91.139 Y106.584 E10.18958
G1 X93.416 Y108.861 E10.28397
G1 E8.28397 F2400.00000
G92 E0
G1 Z1.905 F6000.000
G1 X109.225 Y109.225 F6000.000
G1 E2.00000 F2400.00000
G1 X90.775 Y109.225 E2.54096 F1081.364
G1 X90.775 Y90.775 E3.08192
G1 X109.225 Y90.775 E3.62288
G1 X109.225 Y109.150 E4.16163
G1 X109.750 Y109.750 F6000.000
G1 X90.250 Y109.750 E4.73339 F600.000
G1 X90.250 Y90.250 E5.30514
G1 X109.750 Y90.250 E5.87690
G1 X109.750 Y109.675 E6.44645
G1 X109.317 Y109.500 F6000.000
G1 X106.305 Y108.861 F6000.000
G1 X108.861 Y106.305 E6.55242 F1081.364
G1 X108.861 Y101.932 E6.68064
G1 X101.932 Y108.861 E6.96794
G1 X97.559 Y108.861 E7.09616
G1 X108.861 Y97.559 E7.56479
G1 X108.861 Y93.186 E7.69300
G1 X93.186 Y108.861 E8.34295
G1 X91.139 Y106.534 E8.43380
G1 X106.534 Y91.139 E9.07217
G1 X102.162 Y91.139 E9.20039
G1 X91.139 Y102.162 E9.65743
G1 X91.139 Y97.789 E9.78565
G1 X97.789 Y91.139 E10.06136
G1 X93.416 Y91.139 E10.18958
G1 X91.139 Y93.416 E10.28397
G1 E8.28397 F2400.00000
G92 E0
G1 Z2.222 F6000.000
G1 X109.225 Y109.225 F6000.000
G1 E2.00000 F2400.00000
G1 X90.775 Y109.225 E2.54096 F1081.364
G1 X90.775 Y90.775 E3.08192
G1 X109.225 Y90.775 E3.62288
G1 X109.225 Y109.150 E4.16163
G1 X109.750 Y109.750 F6000.000
G1 X90.250 Y109.750 E4.73339 F600.000
G1 X90.250 Y90.250 E5.30514
G1 X109.750 Y90.250 E5.87690
G1 X109.750 Y109.675 E6.44645
G1 X109.317 Y109.500 F6000.000
G1 X108.861 Y93.695 F6000.000
G1 X106.305 Y91.139 E6.55242 F1081.364
G1 X101.932 Y91.139 E6.68064
G1 X108.861 Y98.068 E6.96794
G1 X108.861 Y102.441 E7.09616
G1 X97.559 Y91.139 E7.56479
G1 X93.186 Y91.139 E7.69300
G1 X108.861 Y106.814 E8.34296
G1 X106.534 Y108.861 E8.43380
G1 X91.139 Y93.466 E9.07217
G1 X91.139 Y97.838 E9.20039
G1 X102.162 Y108.861 E9.65743
G1 X97.789 Y108.861 E9.78565
G1 X91.139 Y102.211 E10.06136
G1 X91.139 Y106.584 E10.18958
G1 X93.416 Y108.861 E10.28397
G1 E8.28397 F2400.00000
G92 E0
G1 Z2.540 F6000.000
G1 X109.225 Y109.225 F6000.000
G1 E2.00000 F2400.00000
G1 X90.775 Y109.225 E2.54096 F1081.364
G1 X90.775 Y90.775 E3.08192
G1 X109.225 Y90.775 E3.62288
G1 X109.225 Y109.150 E4.16163
G1 X109.750 Y109.750 F6000.000
G1 X90.250 Y109.750 E4.73339 F600.000
G1 X90.250 Y90.250 E5.30514
G1 X109.750 Y90.250 E5.87690
G1 X109.750 Y109.675 E6.44645
G1 X109.317 Y109.500 F6000.000
G1 X106.305 Y108.861 F6000.000
G1 X108.861 Y106.305 E6.55242 F1081.364
G1 X108.861 Y101.932 E6.68064
G1 X101.932 Y108.861 E6.96794
G1 X97.559 Y108.861 E7.09616
G1 X108.861 Y97.559 E7.56479
G1 X108.861 Y93.186 E7.69300
G1 X93.186 Y108.861 E8.34295
G1 X91.139 Y106.534 E8.43380
G1 X106.534 Y91.139 E9.07217
G1 X102.162 Y91.139 E9.20039
G1 X91.139 Y102.162 E9.65743
G1 X91.139 Y97.789 E9.78565
G1 X97.789 Y91.139 E10.06136
G1 X93.416 Y91.139 E10.18958
G1 X91.139 Y93.416 E10.28397
G1 E8.28397 F2400.00000
G92 E0
G1 Z2.857 F6000.000
G1 X109.225 Y109.225 F6000.000
G1 E2.00000 F2400.00000
G1 X90.775 Y109.225 E2.54096 F1081.364
G1 X90.775 Y90.775 E3.08192
G1 X109.225 Y90.775 E3.62288
G1 X109.225 Y109.150 E4.16163
G1 X109.750 Y109.750 F6000.000
G1 X90.250 Y109.750 E4.73339 F600.000
G1 X90.250 Y90.250 E5.30514
G1 X109.750 Y90.250 E5.87690
G1 X109.750 Y109.675 E6.44645
G1 X109.317 Y109.500 F6000.000
G1 X108.861 Y93.695 F6000.000
G1 X106.305 Y91.139 E6.55242 F1081.364
G1 X101.932 Y91.139 E6.68064
G1 X108.861 Y98.068 E6.96794
G1 X108.861 Y102.441 E7.09616
G1 X97.559 Y91.139 E7.56479
G1 X93.186 Y91.139 E7.69300
G1 X108.861 Y106.814 E8.34296
G1 X106.534 Y108.861 E8.43380
G1 X91.139 Y93.466 E9.07217
G1 X91.139 Y97.838 E9.20039
G1 X102.162 Y108.861 E9.65743
G1 X97.789 Y108.861 E9.78565
G1 X91.139 Y102.211 E10.06136
G1 X91.139 Y106.584 E10.18958
G1 X93.416 Y108.861 E10.28397
G1 E8.28397 F2400.00000
G92 E0
G1 Z3.175 F6000.000
G1 X109.225 Y109.225 F6000.000
G1 E2.00000 F2400.00000
G1 X90.775 Y109.225 E2.54096 F1081.364
G1 X90.775 Y90.775 E3.08192
G1 X109.225 Y90.775 E3.62288
G1 X109.225 Y109.150 E4.16163
G1 X109.750 Y109.750 F6000.000
G1 X90.250 Y109.750 E4.73339 F600.000
G1 X90.250 Y90.250 E5.30514
G1 X109.750 Y90.250 E5.87690
G1 X109.750 Y109.675 E6.44645
G1 X109.317 Y109.500 F6000.000
G1 X106.305 Y108.861 F6000.000
G1 X108.861 Y106.305 E6.55242 F1081.364
G1 X108.861 Y101.932 E6.68064
G1 X101.932 Y108.861 E6.96794
G1 X97.559 Y108.861 E7.09616
G1 X108.861 Y97.559 E7.56479
G1 X108.861 Y93.186 E7.69300
G1 X93.186 Y108.861 E8.34295
G1 X91.139 Y106.534 E8.43380
G1 X106.534 Y91.139 E9.07217
G1 X102.162 Y91.139 E9.20039
G1 X91.139 Y102.162 E9.65743
G1 X91.139 Y97.789 E9.78565
G1 X97.789 Y91.139 E10.06136
G1 X93.416 Y91.139 E10.18958
G1 X91.139 Y93.416 E10.28397
G1 E8.28397 F2400.00000
G92 E0
G1 Z3.492 F6000.000
G1 X109.225 Y109.225 F6000.000
G1 E2.00000 F2400.00000
G1 X90.775 Y109.225 E2.54096 F1081.364
G1 X90.775 Y90.775 E3.08192
G1 X109.225 Y90.775 E3.62288
G1 X109.225 Y109.150 E4.16163
G1 X109.750 Y109.750 F6000.000
G1 X90.250 Y109.750 E4.73339 F600.000
G1 X90.250 Y90.250 E5.30514
G1 X109.750 Y90.250 E5.87690
G1 X109.750 Y109.675 E6.44645
G1 X109.317 Y109.500 F6000.000
G1 X108.861 Y93.695 F6000.000
G1 X106.305 Y91.139 E6.55242 F1081.364
G1 X101.932 Y91.139 E6.68064
G1 X108.861 Y98.068 E6.96794
G1 X108.861 Y102.441 E7.09616
G1 X97.559 Y91.139 E7.56479
G1 X93.186 Y91.139 E7.69300
G1 X108.861 Y106.814 E8.34296
G1 X106.534 Y108.861 E8.43380
G1 X91.139 Y93.466 E9.07217
G1 X91.139 Y97.838 E9.20039
G1 X102.162 Y108.861 E9.65743
G1 X97.789 Y108.861 E9.78565
G1 X91.139 Y102.211 E10.06136
G1 X91.139 Y106.584 E10.18958
G1 X93.416 Y108.861 E10.28397
G1 E8.28397 F2400.00000
G92 E0
G1 Z3.810 F6000.000
G1 X109.225 Y109.225 F6000.000
G1 E2.00000 F2400.00000
G1 X90.775 Y109.225 E2.54096 F1081.364
G1 X90.775 Y90.775 E3.08192
G1 X109.225 Y90.775 E3.62288
G1 X109.225 Y109.150 E4.16163
G1 X109.750 Y109.750 F6000.000
G1 X90.250 Y109.750 E4.73339 F600.000
G1 X90.250 Y90.250 E5.30514
G1 X109.750 Y90.250 E5.87690
G1 X109.750 Y109.675 E6.44645
G1 X109.317 Y109.500 F6000.000
G1 X106.305 Y108.861 F6000.000
G1 X108.861 Y106.305 E6.55242 F1081.364
G1 X108.861 Y101.932 E6.68064
G1 X101.932 Y108.861 E6.96794
G1 X97.559 Y108.861 E7.09616
G1 X108.861 Y97.559 E7.56479
G1 X108.861 Y93.186 E7.69300
G1 X93.186 Y108.861 E8.34295
G1 X91.139 Y106.534 E8.43380
G1 X106.534 Y91.139 E9.07217
G1 X102.162 Y91.139 E9.20039
G1 X91.139 Y102.162 E9.65743
G1 X91.139 Y97.789 E9.78565
G1 X97.789 Y91.139 E10.06136
G1 X93.416 Y91.139 E10.18958
G1 X91.139 Y93.416 E10.28397
G1 E8.28397 F2400.00000
G92 E0
G1 Z4.127 F6000.000
G1 X109.225 Y109.225 F6000.000
G1 E2.00000 F2400.00000
G1 X90.775 Y109.225 E2.54096 F1081.364
G1 X90.775 Y90.775 E3.08192
G1 X109.225 Y90.775 E3.62288
G1 X109.225 Y109.150 E4.16163
G1 X109.750 Y109.750 F6000.000
G1 X90.250 Y109.750 E4.73339 F600.000
G1 X90.250 Y90.250 E5.30514
G1 X109.750 Y90.250 E5.87690
G1 X109.750 Y109.675 E6.44645
G1 X109.317 Y109.500 F6000.000
G1 X108.861 Y93.695 F6000.000
G1 X106.305 Y91.139 E6.55242 F1081.364
G1 X101.932 Y91.139 E6.68064
G1 X108.861 Y98.068 E6.96794
G1 X108.861 Y102.441 E7.09616
G1 X97.559 Y91.139 E7.56479
G1 X93.186 Y91.139 E7.69300
G1 X108.861 Y106.814 E8.34296
G1 X106.534 Y108.861 E8.43380
G1 X91.139 Y93.466 E9.07217
G1 X91.139 Y97.838 E9.20039
G1 X102.162 Y108.861 E9.65743
G1 X97.789 Y108.861 E9.78565
G1 X91.139 Y102.211 E10.06136
G1 X91.139 Y106.584 E10.18958
G1 X93.416 Y108.861 E10.28397
G1 E8.28397 F2400.00000
G92 E0
G1 Z4.445 F6000.000
G1 X109.225 Y109.225 F6000.000
G1 E2.00000 F2400.00000
G1 X90.775 Y109.225 E2.54096 F1081.364
G1 X90.775 Y90.775 E3.08192
G1 X109.225 Y90.775 E3.62288
G1 X109.225 Y109.150 E4.16163
G1 X109.750 Y109.750 F6000.000
G1 X90.250 Y109.750 E4.73339 F600.000
G1 X90.250 Y90.250 E5.30514
G1 X109.750 Y90.250 E5.87690
G1 X109.750 Y109.675 E6.44645
G1 X109.317 Y109.500 F6000.000
G1 X106.305 Y108.861 F6000.000
G1 X108.861 Y106.305 E6.55242 F1081.364
G1 X108.861 Y101.932 E6.68064
G1 X101.932 Y108.861 E6.96794
G1 X97.559 Y108.861 E7.09616
G1 X108.861 Y97.559 E7.56479
G1 X108.861 Y93.186 E7.69300
G1 X93.186 Y108.861 E8.34295
G1 X91.139 Y106.534 E8.43380
G1 X106.534 Y91.139 E9.07217
G1 X102.162 Y91.139 E9.20039
G1 X91.139 Y102.162 E9.65743
G1 X91.139 Y97.789 E9.78565
G1 X97.789 Y91.139 E10.06136
G1 X93.416 Y91.139 E10.18958
G1 X91.139 Y93.416 E10.28397
G1 E8.28397 F2400.00000
G92 E0
G1 Z4.762 F6000.000
G1 X109.225 Y109.225 F6000.000
G1 E2.00000 F2400.00000
G1 X90.775 Y109.225 E2.54096 F1081.364
G1 X90.775 Y90.775 E3.08192
G1 X109.225 Y90.775 E3.62288
G1 X109.225 Y109.150 E4.16163
G1 X109.750 Y109.750 F6000.000
G1 X90.250 Y109.750 E4.73339 F600.000
G1 X90.250 Y90.250 E5.30514
G1 X109.750 Y90.250 E5.87690
G1 X109.750 Y109.675 E6.44645
G1 X109.317 Y109.500 F6000.000
G1 X108.861 Y93.695 F6000.000
G1 X106.305 Y91.139 E6.55242 F1081.364
G1 X101.932 Y91.139 E6.68064
G1 X108.861 Y98.068 E6.96794
G1 X108.861 Y102.441 E7.09616
G1 X97.559 Y91.139 E7.56479
G1 X93.186 Y91.139 E7.69300
G1 X108.861 Y106.814 E8.34296
G1 X106.534 Y108.861 E8.43380
G1 X91.139 Y93.466 E9.07217
G1 X91.139 Y97.838 E9.20039
G1 X102.162 Y108.861 E9.65743
G1 X97.789 Y108.861 E9.78565
G1 X91.139 Y102.211 E10.06136
G1 X91.139 Y106.584 E10.18958
G1 X93.416 Y108.861 E10.28397
G1 E8.28397 F2400.00000
G92 E0
G1 Z5.080 F6000.000
G1 X109.225 Y109.225 F6000.000
G1 E2.00000 F2400.00000
G1 X90.775 Y109.225 E2.54096 F1081.364
G1 X90.775 Y90.775 E3.08192
G1 X109.225 Y90.775 E3.62288
G1 X109.225 Y109.150 E4.16163
G1 X109.750 Y109.750 F6000.000
G1 X90.250 Y109.750 E4.73339 F600.000
G1 X90.250 Y90.250 E5.30514
G1 X109.750 Y90.250 E5.87690
G1 X109.750 Y109.675 E6.44645
G1 X109.317 Y109.500 F6000.000
G1 X106.305 Y108.861 F6000.000
G1 X108.861 Y106.305 E6.55242 F1081.364
G1 X108.861 Y101.932 E6.68064
G1 X101.932 Y108.861 E6.96794
G1 X97.559 Y108.861 E7.09616
G1 X108.861 Y97.559 E7.56479
G1 X108.861 Y93.186 E7.69300
G1 X93.186 Y108.861 E8.34295
G1 X91.139 Y106.534 E8.43380
G1 X106.534 Y91.139 E9.07217
G1 X102.162 Y91.139 E9.20039
G1 X91.139 Y102.162 E9.65743
G1 X91.139 Y97.789 E9.78565
G1 X97.789 Y91.139 E10.06136
G1 X93.416 Y91.139 E10.18958
G1 X91.139 Y93.416 E10.28397
G1 E8.28397 F2400.00000
G92 E0
G1 Z5.397 F6000.000
G1 X109.225 Y109.225 F6000.000
G1 E2.00000 F2400.00000
G1 X90.775 Y109.225 E2.54096 F1081.364
G1 X90.775 Y90.775 E3.08192
G1 X109.225 Y90.775 E3.62288
G1 X109.225 Y109.150 E4.16163
G1 X109.750 Y109.750 F6000.000
G1 X90.250 Y109.750 E4.73339 F600.000
G1 X90.250 Y90.250 E5.30514
G1 X109.750 Y90.250 E5.87690
G1 X109.750 Y109.675 E6.44645
G1 X109.317 Y109.500 F6000.000
G1 X108.861 Y93.695 F6000.000
G1 X106.305 Y91.139 E6.55242 F1081.364
G1 X101.932 Y91.139 E6.68064
G1 X108.861 Y98.068 E6.96794
G1 X108.861 Y102.441 E7.09616
G1 X97.559 Y91.139 E7.56479
G1 X93.186 Y91.139 E7.69300
G1 X108.861 Y106.814 E8.34296
G1 X106.534 Y108.861 E8.43380
G1 X91.139 Y93.466 E9.07217
G1 X91.139 Y97.838 E9.20039
G1 X102.162 Y108.861 E9.65743
G1 X97.789 Y108.861 E9.78565
G1 X91.139 Y102.211 E10.06136
G1 X91.139 Y106.584 E10.18958
G1 X93.416 Y108.861 E10.28397
G1 E8.28397 F2400.00000
G92 E0
G1 Z5.715 F6000.000
G1 X109.225 Y109.225 F6000.000
G1 E2.00000 F2400.00000
G1 X90.775 Y109.225 E2.54096 F1081.364
G1 X90.775 Y90.775 E3.08192
G1 X109.225 Y90.775 E3.62288
G1 X109.225 Y109.150 E4.16163
G1 X109.750 Y109.750 F6000.000
G1 X90.250 Y109.750 E4.73339 F600.000
G1 X90.250 Y90.250 E5.30514
G1 X109.750 Y90.250 E5.87690
G1 X109.750 Y109.675 E6.44645
G1 X109.317 Y109.500 F6000.000
G1 X106.305 Y108.861 F6000.000
G1 X108.861 Y106.305 E6.55242 F1081.364
G1 X108.861 Y101.932 E6.68064
G1 X101.932 Y108.861 E6.96794
G1 X97.559 Y108.861 E7.09616
G1 X108.861 Y97.559 E7.56479
G1 X108.861 Y93.186 E7.69300
G1 X93.186 Y108.861 E8.34295
G1 X91.139 Y106.534 E8.43380
G1 X106.534 Y91.139 E9.07217
G1 X102.162 Y91.139 E9.20039
G1 X91.139 Y102.162 E9.65743
G1 X91.139 Y97.789 E9.78565
G1 X97.789 Y91.139 E10.06136
G1 X93.416 Y91.139 E10.18958
G1 X91.139 Y93.416 E10.28397
G1 E8.28397 F2400.00000
G92 E0
G1 Z6.032 F6000.000
G1 X109.225 Y109.225 F6000.000
G1 E2.00000 F2400.00000
G1 X90.775 Y109.225 E2.54096 F1081.364
G1 X90.775 Y90.775 E3.08192
G1 X109.225 Y90.775 E3.62288
G1 X109.225 Y109.150 E4.16163
G1 X109.750 Y109.750 F6000.000
G1 X90.250 Y109.750 E4.73339 F600.000
G1 X90.250 Y90.250 E5.30514
G1 X109.750 Y90.250 E5.87690
G1 X109.750 Y109.675 E6.44645
G1 X109.317 Y109.500 F6000.000
G1 X108.861 Y93.695 F6000.000
G1 X106.305 Y91.139 E6.55242 F1081.364
G1 X101.932 Y91.139 E6.68064
G1 X108.861 Y98.068 E6.96794
G1 X108.861 Y102.441 E7.09616
G1 X97.559 Y91.139 E7.56479
G1 X93.186 Y91.139 E7.69300
G1 X108.861 Y106.814 E8.34296
G1 X106.534 Y108.861 E8.43380
G1 X91.139 Y93.466 E9.07217
G1 X91.139 Y97.838 E9.20039
G1 X102.162 Y108.861 E9.65743
G1 X97.789 Y108.861 E9.78565
G1 X91.139 Y102.211 E10.06136
G1 X91.139 Y106.584 E10.18958
G1 X93.416 Y108.861 E10.28397
G1 E8.28397 F2400.00000
G92 E0
G1 Z6.350 F6000.000
G1 X109.225 Y109.225 F6000.000
G1 E2.00000 F2400.00000
G1 X90.775 Y109.225 E2.54096 F1081.364
G1 X90.775 Y90.775 E3.08192
G1 X109.225 Y90.775 E3.62288
G1 X109.225 Y109.150 E4.16163
G1 X109.750 Y109.750 F6000.000
G1 X90.250 Y109.750 E4.73339 F600.000
G1 X90.250 Y90.250 E5.30514
G1 X109.750 Y90.250 E5.87690
G1 X109.750 Y109.675 E6.44645
G1 X109.317 Y109.500 F6000.000
G1 X106.305 Y108.861 F6000.000
G1 X108.861 Y106.305 E6.55242 F1081.364
G1 X108.861 Y101.932 E6.68064
G1 X101.932 Y108.861 E6.96794
G1 X97.559 Y108.861 E7.09616
G1 X108.861 Y97.559 E7.56479
G1 X108.861 Y93.186 E7.69300
G1 X93.186 Y108.861 E8.34295
G1 X91.139 Y106.534 E8.43380
G1 X106.534 Y91.139 E9.07217
G1 X102.162 Y91.139 E9.20039
G1 X91.139 Y102.162 E9.65743
G1 X91.139 Y97.789 E9.78565
G1 X97.789 Y91.139 E10.06136
G1 X93.416 Y91.139 E10.18958
G1 X91.139 Y93.416 E10.28397
G1 E8.28397 F2400.00000
G92 E0
G1 Z6.667 F6000.000
G1 X109.225 Y109.225 F6000.000
G1 E2.00000 F2400.00000
G1 X90.775 Y109.225 E2.54096 F1081.364
G1 X90.775 Y90.775 E3.08192
G1 X109.225 Y90.775 E3.62288
G1 X109.225 Y109.150 E4.16163
G1 X109.750 Y109.750 F6000.000
G1 X90.250 Y109.750 E4.73339 F600.000
G1 X90.250 Y90.250 E5.30514
G1 X109.750 Y90.250 E5.87690
G1 X109.750 Y109.675 E6.44645
G1 X109.317 Y109.500 F6000.000
G1 X108.861 Y93.695 F6000.000
G1 X106.305 Y91.139 E6.55242 F1081.364
G1 X101.932 Y91.139 E6.68064
G1 X108.861 Y98.068 E6.96794
G1 X108.861 Y102.441 E7.09616
G1 X97.559 Y91.139 E7.56479
G1 X93.186 Y91.139 E7.69300
G1 X108.861 Y106.814 E8.34296
G1 X106.534 Y108.861 E8.43380
G1 X91.139 Y93.466 E9.07217
G1 X91.139 Y97.838 E9.20039
G1 X102.162 Y108.861 E9.65743
G1 X97.789 Y108.861 E9.78565
G1 X91.139 Y102.211 E10.06136
G1 X91.139 Y106.584 E10.18958
G1 X93.416 Y108.861 E10.28397
G1 E8.28397 F2400.00000
G92 E0
G1 Z6.985 F6000.000
G1 X109.225 Y109.225 F6000.000
G1 E2.00000 F2400.00000
G1 X90.775 Y109.225 E2.54096 F1081.364
G1 X90.775 Y90.775 E3.08192
G1 X109.225 Y90.775 E3.62288
G1 X109.225 Y109.150 E4.16163
G1 X109.750 Y109.750 F6000.000
G1 X90.250 Y109.750 E4.73339 F600.000
G1 X90.250 Y90.250 E5.30514
G1 X109.750 Y90.250 E5.87690
G1 X109.750 Y109.675 E6.44645
G1 X109.317 Y109.500 F6000.000
G1 X106.305 Y108.861 F6000.000
G1 X108.861 Y106.305 E6.55242 F1081.364
G1 X108.861 Y101.932 E6.68064
G1 X101.932 Y108.861 E6.96794
G1 X97.559 Y108.861 E7.09616
G1 X108.861 Y97.559 E7.56479
G1 X108.861 Y93.186 E7.69300
G1 X93.186 Y108.861 E8.34295
G1 X91.139 Y106.534 E8.43380
G1 X106.534 Y91.139 E9.07217
G1 X102.162 Y91.139 E9.20039
G1 X91.139 Y102.162 E9.65743
G1 X91.139 Y97.789 E9.78565
G1 X97.789 Y91.139 E10.06136
G1 X93.416 Y91.139 E10.18958
G1 X91.139 Y93.416 E10.28397
G1 E8.28397 F2400.00000
G92 E0
G1 Z7.302 F6000.000
G1 X109.225 Y109.225 F6000.000
G1 E2.00000 F2400.00000
G1 X90.775 Y109.225 E2.54096 F1081.364
G1 X90.775 Y90.775 E3.08192
G1 X109.225 Y90.775 E3.62288
G1 X109.225 Y109.150 E4.16163
G1 X109.750 Y109.750 F6000.000
G1 X90.250 Y109.750 E4.73339 F600.000
G1 X90.250 Y90.250 E5.30514
G1 X109.750 Y90.250 E5.87690
G1 X109.750 Y109.675 E6.44645
G1 X109.317 Y109.500 F6000.000
G1 X108.861 Y93.695 F6000.000
G1 X106.305 Y91.139 E6.55242 F1081.364
G1 X101.932 Y91.139 E6.68064
G1 X108.861 Y98.068 E6.96794
G1 X108.861 Y102.441 E7.09616
G1 X97.559 Y91.139 E7.56479
G1 X93.186 Y91.139 E7.69300
G1 X108.861 Y106.814 E8.34296
G1 X106.534 Y108.861 E8.43380
G1 X91.139 Y93.466 E9.07217
G1 X91.139 Y97.838 E9.20039
G1 X102.162 Y108.861 E9.65743
G1 X97.789 Y108.861 E9.78565
G1 X91.139 Y102.211 E10.06136
G1 X91.139 Y106.584 E10.18958
G1 X93.416 Y108.861 E10.28397
G1 E8.28397 F2400.00000
G92 E0
G1 Z7.620 F6000.000
G1 X109.225 Y109.225 F6000.000
G1 E2.00000 F2400.00000
G1 X90.775 Y109.225 E2.54096 F1081.364
G1 X90.775 Y90.775 E3.08192
G1 X109.225 Y90.775 E3.62288
G1 X109.225 Y109.150 E4.16163
G1 X109.750 Y109.750 F6000.000
G1 X90.250 Y109.750 E4.73339 F600.000
G1 X90.250 Y90.250 E5.30514
G1 X109.750 Y90.250 E5.87690
G1 X109.750 Y109.675 E6.44645
G1 X109.317 Y109.500 F6000.000
G1 X106.305 Y108.861 F6000.000
G1 X108.861 Y106.305 E6.55242 F1081.364
G1 X108.861 Y101.932 E6.68064
G1 X101.932 Y108.861 E6.96794
G1 X97.559 Y108.861 E7.09616
G1 X108.861 Y97.559 E7.56479
G1 X108.861 Y93.186 E7.69300
G1 X93.186 Y108.861 E8.34295
G1 X91.139 Y106.534 E8.43380
G1 X106.534 Y91.139 E9.07217
G1 X102.162 Y91.139 E9.20039
G1 X91.139 Y102.162 E9.65743
G1 X91.139 Y97.789 E9.78565
G1 X97.789 Y91.139 E10.06136
G1 X93.416 Y91.139 E10.18958
G1 X91.139 Y93.416 E10.28397
G1 E8.28397 F2400.00000
G92 E0
G1 Z7.937 F6000.000
G1 X109.225 Y109.225 F6000.000
G1 E2.00000 F2400.00000
G1 X90.775 Y109.225 E2.54096 F1081.364
G1 X90.775 Y90.775 E3.08192
G1 X109.225 Y90.775 E3.62288
G1 X109.225 Y109.150 E4.16163
G1 X109.750 Y109.750 F6000.000
G1 X90.250 Y109.750 E4.73339 F600.000
G1 X90.250 Y90.250 E5.30514
G1 X109.750 Y90.250 E5.87690
G1 X109.750 Y109.675 E6.44645
G1 X109.317 Y109.500 F6000.000
G1 X108.861 Y93.695 F6000.000
G1 X106.305 Y91.139 E6.55242 F1081.364
G1 X101.932 Y91.139 E6.68064
G1 X108.861 Y98.068 E6.96794
G1 X108.861 Y102.441 E7.09616
G1 X97.559 Y91.139 E7.56479
G1 X93.186 Y91.139 E7.69300
G1 X108.861 Y106.814 E8.34296
G1 X106.534 Y108.861 E8.43380
G1 X91.139 Y93.466 E9.07217
G1 X91.139 Y97.838 E9.20039
G1 X102.162 Y108.861 E9.65743
G1 X97.789 Y108.861 E9.78565
G1 X91.139 Y102.211 E10.06136
G1 X91.139 Y106.584 E10.18958
G1 X93.416 Y108.861 E10.28397
G1 E8.28397 F2400.00000
G92 E0
G1 Z8.255 F6000.000
G1 X109.225 Y109.225 F6000.000
G1 E2.00000 F2400.00000
G1 X90.775 Y109.225 E2.54096 F1081.364
G1 X90.775 Y90.775 E3.08192
G1 X109.225 Y90.775 E3.62288
G1 X109.225 Y109.150 E4.16163
G1 X109.750 Y109.750 F6000.000
G1 X90.250 Y109.750 E4.73339 F600.000
G1 X90.250 Y90.250 E5.30514
G1 X109.750 Y90.250 E5.87690
G1 X109.750 Y109.675 E6.44645
G1 X109.317 Y109.500 F6000.000
G1 X106.305 Y108.861 F6000.000
G1 X108.861 Y106.305 E6.55242 F1081.364
G1 X108.861 Y101.932 E6.68064
G1 X101.932 Y108.861 E6.96794
G1 X97.559 Y108.861 E7.09616
G1 X108.861 Y97.559 E7.56479
G1 X108.861 Y93.186 E7.69300
G1 X93.186 Y108.861 E8.34295
G1 X91.139 Y106.534 E8.43380
G1 X106.534 Y91.139 E9.07217
G1 X102.162 Y91.139 E9.20039
G1 X91.139 Y102.162 E9.65743
G1 X91.139 Y97.789 E9.78565
G1 X97.789 Y91.139 E10.06136
G1 X93.416 Y91.139 E10.18958
G1 X91.139 Y93.416 E10.28397
G1 E8.28397 F2400.00000
G92 E0
G1 Z8.572 F6000.000
G1 X109.225 Y109.225 F6000.000
G1 E2.00000 F2400.00000
G1 X90.775 Y109.225 E2.54096 F1081.364
G1 X90.775 Y90.775 E3.08192
G1 X109.225 Y90.775 E3.62288
G1 X109.225 Y109.150 E4.16163
G1 X109.750 Y109.750 F6000.000
G1 X90.250 Y109.750 E4.73339 F600.000
G1 X90.250 Y90.250 E5.30514
G1 X109.750 Y90.250 E5.87690
G1 X109.750 Y109.675 E6.44645
G1 X109.317 Y109.500 F6000.000
G1 X108.861 Y93.695 F6000.000
G1 X106.305 Y91.139 E6.55242 F1081.364
G1 X101.932 Y91.139 E6.68064
G1 X108.861 Y98.068 E6.96794
G1 X108.861 Y102.441 E7.09616
G1 X97.559 Y91.139 E7.56479
G1 X93.186 Y91.139 E7.69300
G1 X108.861 Y106.814 E8.34296
G1 X106.534 Y108.861 E8.43380
G1 X91.139 Y93.466 E9.07217
G1 X91.139 Y97.838 E9.20039
G1 X102.162 Y108.861 E9.65743
G1 X97.789 Y108.861 E9.78565
G1 X91.139 Y102.211 E10.06136
G1 X91.139 Y106.584 E10.18958
G1 X93.416 Y108.861 E10.28397
G1 E8.28397 F2400.00000
G92 E0
G1 Z8.890 F6000.000
G1 X109.225 Y109.225 F6000.000
G1 E2.00000 F2400.00000
G1 X90.775 Y109.225 E2.54096 F1081.364
G1 X90.775 Y90.775 E3.08192
G1 X109.225 Y90.775 E3.62288
G1 X109.225 Y109.150 E4.16163
G1 X109.750 Y109.750 F6000.000
G1 X90.250 Y109.750 E4.73339 F600.000
G1 X90.250 Y90.250 E5.30514
G1 X109.750 Y90.250 E5.87690
G1 X109.750 Y109.675 E6.44645
G1 X109.317 Y109.500 F6000.000
G1 X106.305 Y108.861 F6000.000
G1 X108.861 Y106.305 E6.55242 F1081.364
G1 X108.861 Y101.932 E6.68064
G1 X101.932 Y108.861 E6.96794
G1 X97.559 Y108.861 E7.09616
G1 X108.861 Y97.559 E7.56479
G1 X108.861 Y93.186 E7.69300
G1 X93.186 Y108.861 E8.34295
G1 X91.139 Y106.534 E8.43380
G1 X106.534 Y91.139 E9.07217
G1 X102.162 Y91.139 E9.20039
G1 X91.139 Y102.162 E9.65743
G1 X91.139 Y97.789 E9.78565
G1 X97.789 Y91.139 E10.06136
G1 X93.416 Y91.139 E10.18958
G1 X91.139 Y93.416 E10.28397
G1 E8.28397 F2400.00000
G92 E0
G1 Z9.208 F6000.000
G1 X109.225 Y109.225 F6000.000
G1 E2.00000 F2400.00000
G1 X90.775 Y109.225 E2.54096 F1081.364
G1 X90.775 Y90.775 E3.08192
G1 X109.225 Y90.775 E3.62288
G1 X109.225 Y109.150 E4.16163
G1 X109.750 Y109.750 F6000.000
G1 X90.250 Y109.750 E4.73339 F600.000
G1 X90.250 Y90.250 E5.30514
G1 X109.750 Y90.250 E5.87690
G1 X109.750 Y109.675 E6.44645
G1 X109.317 Y109.500 F6000.000
G1 X108.861 Y93.695 F6000.000
G1 X106.305 Y91.139 E6.55242 F1081.364
G1 X101.932 Y91.139 E6.68064
G1 X108.861 Y98.068 E6.96794
G1 X108.861 Y102.441 E7.09616
G1 X97.559 Y91.139 E7.56479
G1 X93.186 Y91.139 E7.69300
G1 X108.861 Y106.814 E8.34296
G1 X106.534 Y108.861 E8.43380
G1 X91.139 Y93.466 E9.07217
G1 X91.139 Y97.838 E9.20039
G1 X102.162 Y108.861 E9.65743
G1 X97.789 Y108.861 E9.78565
G1 X91.139 Y102.211 E10.06136
G1 X91.139 Y106.584 E10.18958
G1 X93.416 Y108.861 E10.28397
G1 E8.28397 F2400.00000
G92 E0
G1 Z9.525 F6000.000
G1 X109.225 Y109.225 F6000.000
G1 E2.00000 F2400.00000
G1 X90.775 Y109.225 E2.54096 F2827.427
G1 X90.775 Y90.775 E3.08192
G1 X109.225 Y90.775 E3.62288
G1 X109.225 Y109.150 E4.16163
G1 X109.750 Y109.750 F6000.000
G1 X90.250 Y109.750 E4.73339 F1413.714
G1 X90.250 Y90.250 E5.30514
G1 X109.750 Y90.250 E5.87690
G1 X109.750 Y109.675 E6.44645
G1 X109.317 Y109.500 F6000.000
G1 X108.573 Y108.846 F6000.000
M106 S255
G1 X108.846 Y108.573 E6.45824 F3000.000
G1 X108.846 Y107.781 E6.48238
G1 X107.781 Y108.846 E6.52830
G1 X106.989 Y108.846 E6.55244
G1 X108.846 Y106.989 E6.63251
G1 X108.846 Y106.197 E6.65665
G1 X106.197 Y108.846 E6.77085
G1 X105.406 Y108.846 E6.79499
G1 X108.846 Y105.406 E6.94333
G1 X108.846 Y104.614 E6.96747
G1 X104.614 Y108.846 E7.14996
G1 X103.822 Y108.846 E7.17410
G1 X108.846 Y103.822 E7.39072
G1 X108.846 Y103.030 E7.41486
G1 X103.030 Y108.846 E7.66562
G1 X102.239 Y108.846 E7.68976
G1 X108.846 Y102.239 E7.97466
G1 X108.846 Y101.447 E7.99880
G1 X101.447 Y108.846 E8.31784
G1 X100.655 Y108.846 E8.34198
G1 X108.846 Y100.655 E8.69516
G1 X108.846 Y99.863 E8.71930
G1 X99.863 Y108.846 E9.10661
G1 X99.072 Y108.846 E9.13075
G1 X108.846 Y99.072 E9.55221
G1 X108.846 Y98.280 E9.57635
G1 X98.280 Y108.846 E10.03195
G1 X97.488 Y108.846 E10.05609
G1 X108.846 Y97.488 E10.54582
G1 X108.846 Y96.696 E10.56996
G1 X96.696 Y108.846 E11.09384
G1 X95.904 Y108.846 E11.11798
G1 X108.846 Y95.904 E11.67599
G1 X108.846 Y95.113 E11.70013
G1 X95.113 Y108.846 E12.29228
G1 X94.321 Y108.846 E12.31642
G1 X108.846 Y94.321 E12.94271
G1 X108.846 Y93.529 E12.96685
G1 X93.529 Y108.846 E13.62729
G1 X92.737 Y108.846 E13.65143
G1 X108.846 Y92.737 E14.34600
G1 X108.846 Y91.946 E14.37014
G1 X91.946 Y108.846 E15.09885
G1 X91.174 Y108.826 E15.12238
G1 X108.826 Y91.174 E15.88351
G1 X108.054 Y91.154 E15.90705
G1 X91.154 Y108.054 E16.63576
G1 X91.154 Y107.263 E16.65990
G1 X107.263 Y91.154 E17.35447
G1 X106.471 Y91.154 E17.37861
G1 X91.154 Y106.471 E18.03904
G1 X91.154 Y105.679 E18.06318
G1 X105.679 Y91.154 E18.68947
G1 X104.887 Y91.154 E18.71361
G1 X91.154 Y104.887 E19.30576
G1 X91.154 Y104.096 E19.32990
G1 X104.096 Y91.154 E19.88792
G1 X103.304 Y91.154 E19.91206
G1 X91.154 Y103.304 E20.43593
G1 X91.154 Y102.512 E20.46007
G1 X102.512 Y91.154 E20.94980
G1 X101.720 Y91.154 E20.97394
G1 X91.154 Y101.720 E21.42954
G1 X91.154 Y100.928 E21.45368
G1 X100.928 Y91.154 E21.87514
G1 X100.137 Y91.154 E21.89928
G1 X91.154 Y100.137 E22.28659
G1 X91.154 Y99.345 E22.31073
G1 X99.345 Y91.154 E22.66391
G1 X98.553 Y91.154 E22.68805
G1 X91.154 Y98.553 E23.00709
G1 X91.154 Y97.761 E23.03123
G1 X97.761 Y91.154 E23.31613
G1 X96.970 Y91.154 E23.34027
G1 X91.154 Y96.970 E23.59103
G1 X91.154 Y96.178 E23.61517
G1 X96.178 Y91.154 E23.83179
G1 X95.386 Y91.154 E23.85593
G1 X91.154 Y95.386 E24.03842
G1 X91.154 Y94.594 E24.06256
G1 X94.594 Y91.154 E24.21090
G1 X93.803 Y91.154 E24.23504
G1 X91.154 Y93.803 E24.34924
G1 X91.154 Y93.011 E24.37338
G1 X93.011 Y91.154 E24.45345
G1 X92.219 Y91.154 E24.47759
G1 X91.154 Y92.219 E24.52351
G1 X91.154 Y91.427 E24.54765
G1 X91.427 Y91.154 E24.55944
M106 S255
G1 E22.55944 F2400.00000
G92 E0
G1 Z9.843 F6000.000
G1 X109.225 Y109.225 F6000.000
G1 E2.00000 F2400.00000
G1 X90.775 Y109.225 E2.54096 F2658.084
G1 X90.775 Y90.775 E3.08192
G1 X109.225 Y90.775 E3.62288
G1 X109.225 Y109.150 E4.16163
G1 X109.750 Y109.750 F6000.000
G1 X90.250 Y109.750 E4.73339 F1329.042
G1 X90.250 Y90.250 E5.30514
G1 X109.750 Y90.250 E5.87690
G1 X109.750 Y109.675 E6.44645
G1 X109.317 Y109.500 F6000.000
G1 E4.44645 F2400.00000
G92 E0
G1 X108.861 Y91.442 F6000.000
G1 E2.00000 F2400.00000
G1 X108.558 Y91.139 E2.01281 F2153.048
G1 X107.665 Y91.139 E2.03956
G1 X108.861 Y92.335 E2.09020
G1 X108.861 Y93.228 E2.11695
G1 X106.772 Y91.139 E2.20542
G1 X105.878 Y91.139 E2.23217
G1 X108.861 Y94.122 E2.35847
G1 X108.861 Y95.015 E2.38522
G1 X104.985 Y91.139 E2.54936
G1 X104.092 Y91.139 E2.57611
G1 X108.861 Y95.908 E2.77808
G1 X108.861 Y96.801 E2.80483
G1 X103.199 Y91.139 E3.04463
G1 X102.305 Y91.139 E3.07138
G1 X108.861 Y97.695 E3.34901
G1 X108.861 Y98.588 E3.37576
G1 X101.412 Y91.139 E3.69122
G1 X100.519 Y91.139 E3.71797
G1 X108.861 Y99.481 E4.07127
G1 X108.861 Y100.375 E4.09802
G1 X99.625 Y91.139 E4.48915
G1 X98.732 Y91.139 E4.51590
G1 X108.861 Y101.268 E4.94486
G1 X108.861 Y102.161 E4.97161
G1 X97.839 Y91.139 E5.43840
G1 X96.946 Y91.139 E5.46515
G1 X108.861 Y103.054 E5.96977
G1 X108.861 Y103.948 E5.99653
G1 X96.052 Y91.139 E6.53898
G1 X95.159 Y91.139 E6.56573
G1 X108.861 Y104.841 E7.14602
G1 X108.861 Y105.734 E7.17277
G1 X94.266 Y91.139 E7.79089
G1 X93.373 Y91.139 E7.81764
G1 X108.861 Y106.627 E8.47359
G1 X108.861 Y107.521 E8.50034
G1 X92.479 Y91.139 E9.19413
G1 X91.586 Y91.139 E9.22088
G1 X108.861 Y108.414 E9.95250
G1 X108.414 Y108.861 E9.97141
G1 X91.139 Y91.586 E10.70303
G1 X91.139 Y92.479 E10.72978
G1 X107.521 Y108.861 E11.42356
G1 X106.627 Y108.861 E11.45031
G1 X91.139 Y93.373 E12.10626
G1 X91.139 Y94.266 E12.13301
G1 X105.734 Y108.861 E12.75113
G1 X104.841 Y108.861 E12.77788
G1 X91.139 Y95.159 E13.35817
G1 X91.139 Y96.052 E13.38492
G1 X103.948 Y108.861 E13.92737
G1 X103.054 Y108.861 E13.95412
G1 X91.139 Y96.946 E14.45874
G1 X91.139 Y97.839 E14.48549
G1 X102.161 Y108.861 E14.95228
G1 X101.268 Y108.861 E14.97904
G1 X91.139 Y98.732 E15.40799
G1 X91.139 Y99.626 E15.43474
G1 X100.374 Y108.861 E15.82587
G1 X99.481 Y108.861 E15.85262
G1 X91.139 Y100.519 E16.20591
G1 X91.139 Y101.412 E16.23266
G1 X98.588 Y108.861 E16.54813
G1 X97.695 Y108.861 E16.57488
G1 X91.139 Y102.305 E16.85251
G1 X91.139 Y103.199 E16.87926
G1 X96.801 Y108.861 E17.11905
G1 X95.908 Y108.861 E17.14581
G1 X91.139 Y104.092 E17.34777
G1 X91.139 Y104.985 E17.37452
G1 X95.015 Y108.861 E17.53865
G1 X94.122 Y108.861 E17.56541
G1 X91.139 Y105.878 E17.69171
G1 X91.139 Y106.772 E17.71846
G1 X93.228 Y108.861 E17.80693
G1 X92.335 Y108.861 E17.83368
G1 X91.139 Y107.665 E17.88431
G1 X91.139 Y108.558 E17.91107
G1 X91.442 Y108.861 E17.92387
G1 E15.92387 F2400.00000
G92 E0
M107
M104 S0  ; turn off temperature
M190 S0  ;
G28 X0  Y0 ; 
; filament used = 309.6mm (2.1cm3)

; avoid_crossing_perimeters = 0
; bed_shape = 0x0,600x0,600x600,0x600
; bed_temperature = 0
; before_layer_gcode = 
; bridge_acceleration = 0
; bridge_fan_speed = 100
; brim_width = 0
; complete_objects = 0
; cooling = 1
; default_acceleration = 0
; disable_fan_first_layers = 0
; duplicate_distance = 6
; end_gcode = M104 S0  ; turn off temperature\nM190 S0  ;\nG28 X0  Y0 ; 
; extruder_clearance_height = 20
; extruder_clearance_radius = 20
; extruder_offset = 0x0
; extrusion_axis = E
; extrusion_multiplier = 1
; fan_always_on = 1
; fan_below_layer_time = 60
; filament_diameter = 2.92
; first_layer_acceleration = 0
; first_layer_bed_temperature = 0
; first_layer_extrusion_width = 200%
; first_layer_speed = 15
; first_layer_temperature = 195
; gcode_arcs = 0
; gcode_comments = 0
; gcode_flavor = reprap
; infill_acceleration = 0
; infill_first = 0
; layer_gcode = 
; max_fan_speed = 100
; min_fan_speed = 100
; min_print_speed = 10
; min_skirt_length = 0
; notes = 
; nozzle_diameter = 0.5
; only_retract_when_crossing_perimeters = 1
; ooze_prevention = 0
; output_filename_format = [input_filename_base].gco
; perimeter_acceleration = 0
; post_process = 
; pressure_advance = 0
; resolution = 0
; retract_before_travel = 2
; retract_layer_change = 1
; retract_length = 2
; retract_length_toolchange = 10
; retract_lift = 0
; retract_restart_extra = 0
; retract_restart_extra_toolchange = 0
; retract_speed = 40
; skirt_distance = 5
; skirt_height = 1
; skirts = 1
; slowdown_below_layer_time = 20
; spiral_vase = 0
; standby_temperature_delta = -5
; start_gcode = \nM92 X118.52 ; calibrate X\nM92 Y118.52 ; calibrate Y\nM92 Z4031.50 ; calibrate Z\nM92 E1850 ; calibrate E\nM220 S100\nM221 S100\nM201 X1500 Y1500\nG28\nG92 E0\nG1 E5.0 F100\nG92 E0
; temperature = 195
; threads = 5
; toolchange_gcode = 
; travel_speed = 100
; use_firmware_retraction = 0
; use_relative_e_distances = 0
; use_volumetric_e = 0
; vibration_limit = 0
; wipe = 0
; z_offset = 0
; dont_support_bridges = 1
; extrusion_width = 0
; first_layer_height = 0.3175
; infill_only_where_needed = 0
; interface_shells = 0
; layer_height = 0.3175
; raft_layers = 0
; seam_position = aligned
; support_material = 0
; support_material_angle = 45
; support_material_contact_distance = 0.2
; support_material_enforce_layers = 0
; support_material_extruder = 1
; support_material_extrusion_width = 0
; support_material_interface_extruder = 1
; support_material_interface_layers = 0
; support_material_interface_spacing = 0
; support_material_interface_speed = 100%
; support_material_pattern = rectilinear
; support_material_spacing = 3.5
; support_material_speed = 50
; support_material_threshold = 0
; xy_size_compensation = 0
; bottom_solid_layers = 2
; bridge_flow_ratio = 1
; bridge_speed = 50
; external_fill_pattern = rectilinear
; external_perimeter_extrusion_width = 0
; external_perimeter_speed = 50%
; external_perimeters_first = 0
; extra_perimeters = 0
; fill_angle = 45
; fill_density = 20%
; fill_pattern = rectilinear
; gap_fill_speed = 50
; infill_every_layers = 1
; infill_extruder = 1
; infill_extrusion_width = 0
; infill_overlap = 15%
; infill_speed = 60
; overhangs = 0
; perimeter_extruder = 1
; perimeter_extrusion_width = 0
; perimeter_speed = 60
; perimeters = 2
; small_perimeter_speed = 50%
; solid_infill_below_area = 70
; solid_infill_every_layers = 0
; solid_infill_extruder = 1
; solid_infill_extrusion_width = 0
; solid_infill_speed = 90%
; thin_walls = 0
; top_infill_extrusion_width = 0
; top_solid_infill_speed = 90%
; top_solid_layers = 2
